# ================================================================================= #
#        _             ____     _____  _____   ____  ______ _____ _      ______     #
#       | |           |  _ \   |  __ \|  __ \ / __ \|  ____|_   _| |    |  ____|    #
#       | | ___   ___ | |_) |  | |__) | |__) | |  | | |__    | | | |    | |__       #
#   _   | |/ _ \ / _ \   _ <   |  ___/|  _  /| |  | |  __|   | | | |    |  __|      #
#  | |__| | (_) |  __/  |_) |  | |    | | \ \| |__| | |     _| |_| |____| |____     #
#   \____/ \___/ \___| ____/   |_|    |_|  \_\\____/|_|    |_____|______|______|    #
#                                                                                   #